{
  "id": "champ",
  "name": "Champ",
  "version": "0.1.0",
  "published": true,
  "special": false,
  "colors": [
    "#ead7ba",
    "#ffc229",
    "#1b2c40"
  ],
  "fonts": {
    "a": "./schema/font-a.svg",
    "b": "./schema/font-b.svg",
    "c": "./schema/font-c.svg",
    "d": "./schema/font-d.svg",
    "e": "./schema/font-e.svg"
  },
  "thumbnails": {
    "large": "./schema/champ-thumbnail-large.svg",
    "small": "./schema/champ-thumbnail-small.svg"
  }
}
